<?xml version="1.0" encoding="utf-8"?>
<!-- Generator: Adobe Illustrator 19.2.0, SVG Export Plug-In . SVG Version: 6.00 Build 0)  -->
<svg version="1.1" xmlns="http://www.w3.org/2000/svg" xmlns:xlink="http://www.w3.org/1999/xlink" x="0px" y="0px"
	 viewBox="0 0 577.9 67" style="enable-background:new 0 0 577.9 67;" xml:space="preserve">
<style type="text/css">
	.st0{display:none;}
	.st1{display:inline;fill:none;}
	.st2{display:inline;}
	.st3{font-family:'Phosphate-Solid';}
	.st4{font-size:81px;}
	.st5{fill:#66499E;}
	.st6{display:inline;fill:#66499E;}
	.st7{display:none;fill:#66499E;}
	.st8{fill:#664A9E;}
	.st9{display:inline;fill:#010101;}
</style>
<g id="Layer_1" class="st0">
	<rect x="57" y="3" class="st1" width="554" height="67"/>
	<text transform="matrix(1 0 0 1 199.7034 57.0264)"><tspan x="0" y="0" class="st2 st3 st4">MICRO</tspan><tspan x="243.2" y="0" class="st2 st3 st4">-</tspan></text>
	<g class="st2">
		<path class="st5" d="M60,6h14.3l14.1,20.7l14-20.7h14.3v54H99.4V40.6l-11,16.2L77.3,40.6V60H60V6z"/>
		<path class="st5" d="M122.3,6h18.3v54h-18.3V6z"/>
		<path class="st5" d="M145.1,33.1c0-4.3,0.8-8.2,2.3-11.7c1.5-3.5,3.6-6.5,6.2-9c2.6-2.5,5.6-4.4,9.1-5.7c3.5-1.3,7.1-2,11-2
			c3.1,0,5.8,0.3,8.2,0.9c2.4,0.6,4.5,1.3,6.2,2c2,0.9,3.7,1.8,5.2,2.8l-8.5,15c-0.9-0.6-1.8-1.3-2.8-1.9c-0.9-0.4-2-0.9-3.3-1.3
			c-1.3-0.4-2.7-0.6-4.3-0.6c-1.7,0-3.2,0.3-4.6,0.9c-1.4,0.6-2.6,1.4-3.7,2.4c-1.1,1-1.9,2.2-2.5,3.6c-0.6,1.4-0.9,2.8-0.9,4.4
			s0.3,3,0.9,4.4c0.6,1.4,1.5,2.6,2.6,3.6c1.1,1,2.3,1.8,3.8,2.4c1.5,0.6,3.1,0.9,4.8,0.9c1.7,0,3.3-0.2,4.6-0.6
			c1.3-0.4,2.5-0.9,3.4-1.5c1.1-0.6,2-1.3,2.8-2.1l8.5,15c-1.5,1.2-3.2,2.2-5.2,3.2c-1.7,0.8-3.8,1.5-6.2,2.1c-2.4,0.6-5.2,1-8.3,1
			c-4.2,0-8.1-0.7-11.7-2.1c-3.6-1.4-6.6-3.3-9.2-5.8c-2.6-2.5-4.6-5.5-6.1-9S145.1,37.3,145.1,33.1z"/>
		<path class="st5" d="M196,6h18.6c3.5,0,6.7,0.5,9.6,1.4c2.9,0.9,5.5,2.3,7.7,4c2.2,1.8,3.8,4,5.1,6.6c1.2,2.6,1.8,5.6,1.8,9
			c0,2.7-0.4,5-1.1,6.9c-0.8,1.9-1.6,3.5-2.5,4.7c-1.1,1.4-2.3,2.6-3.6,3.6L241.6,60h-20.2l-8.1-13.7V60H196V6z M213.3,32.6h0.9
			c2.1,0,3.8-0.5,5.2-1.4c1.4-0.9,2.1-2.5,2.1-4.6c0-2.2-0.7-3.7-2.1-4.6c-1.4-0.9-3.2-1.4-5.2-1.4h-0.9V32.6z"/>
		<path class="st5" d="M241.6,33.1c0-3.9,0.7-7.6,2.2-11c1.5-3.5,3.5-6.5,6.1-9c2.6-2.6,5.6-4.6,9-6.1c3.5-1.5,7.1-2.2,11-2.2
			c3.9,0,7.6,0.7,11,2.2c3.5,1.5,6.5,3.5,9,6.1c2.6,2.6,4.6,5.6,6.1,9c1.5,3.5,2.2,7.1,2.2,11c0,3.9-0.7,7.6-2.2,11
			c-1.5,3.5-3.5,6.5-6.1,9c-2.6,2.6-5.6,4.6-9,6.1c-3.5,1.5-7.1,2.2-11,2.2c-3.9,0-7.6-0.7-11-2.2c-3.5-1.5-6.5-3.5-9-6.1
			c-2.6-2.6-4.6-5.6-6.1-9C242.4,40.6,241.6,37,241.6,33.1z M258.6,33.1c0,1.6,0.3,3,0.9,4.4c0.6,1.4,1.4,2.6,2.4,3.6
			c1,1,2.2,1.8,3.6,2.4s2.8,0.9,4.4,0.9c1.6,0,3-0.3,4.4-0.9c1.4-0.6,2.6-1.4,3.6-2.4c1-1,1.8-2.2,2.4-3.6c0.6-1.4,0.9-2.8,0.9-4.4
			s-0.3-3-0.9-4.4c-0.6-1.4-1.4-2.6-2.4-3.6c-1-1-2.2-1.8-3.6-2.4c-1.4-0.6-2.8-0.9-4.4-0.9c-1.6,0-3,0.3-4.4,0.9
			c-1.4,0.6-2.6,1.4-3.6,2.4c-1,1-1.8,2.2-2.4,3.6C258.9,30,258.6,31.5,258.6,33.1z"/>
		<path class="st5" d="M323.5,28.5h-3.7c-1.6,0-2.7-0.4-3.4-1.2c-0.7-0.8-1-1.9-1-3.3c0-3,2.2-4.5,6.6-4.5c4.2,0,7.3,0.6,9.4,1.9
			l-1.8,1.4c-1.4-0.7-4-1-7.6-1c-1.8,0-3,0.2-3.6,0.6c-0.6,0.4-0.9,0.9-0.9,1.7s0.2,1.3,0.5,1.7c0.3,0.4,0.9,0.6,1.8,0.6h3.8
			c2.8,0,5.3,0.5,7.5,1.4c2.2,1,4.1,2.3,5.5,3.9c1.4,1.7,2.5,3.6,3.3,5.7s1.1,4.5,1.1,6.9c0,2-0.3,3.9-0.8,5.7
			c-0.6,1.8-1.4,3.4-2.5,4.9c-1.1,1.5-2.5,2.8-4,3.9c-1.6,1.1-3.4,1.9-5.6,2.6c-2.2,0.6-4.5,0.9-7,0.9c-4,0-7.7-0.6-11.2-1.8
			c-3.5-1.2-6.4-2.9-8.7-5.1l1.8-1.3c2.1,1.9,4.7,3.4,7.9,4.5c3.2,1.1,6.5,1.6,10.1,1.6c2.8,0,5.4-0.4,7.6-1.2
			c2.3-0.8,4.1-2,5.6-3.4c1.5-1.4,2.6-3.1,3.4-5c0.8-1.9,1.2-3.9,1.2-6.1c0-2.9-0.6-5.5-1.7-7.9c-1.2-2.3-2.9-4.2-5.3-5.7
			C329.5,29.3,326.7,28.5,323.5,28.5z M319.7,39.8h3.4c1.6,0,2.7,0.4,3.4,1.2c0.7,0.8,1,1.9,1,3.2c0,3-2.2,4.5-6.6,4.5
			c-4.2,0-7.3-0.6-9.4-1.9l1.8-1.4c1.4,0.7,4,1,7.6,1c1.8,0,3-0.2,3.6-0.6c0.6-0.4,0.9-0.9,0.9-1.7c0-0.7-0.2-1.2-0.5-1.6
			c-0.3-0.4-1-0.6-1.9-0.6h-3.3c-2.8,0-5.4-0.5-7.7-1.4c-2.3-0.9-4.2-2.2-5.6-3.9c-1.5-1.6-2.6-3.6-3.4-5.7c-0.8-2.2-1.2-4.5-1.2-7
			c0-2,0.3-3.9,0.8-5.7c0.6-1.8,1.4-3.4,2.5-4.9c1.1-1.5,2.5-2.8,4-3.9c1.6-1.1,3.4-1.9,5.6-2.6c2.2-0.6,4.5-0.9,7-0.9
			c4,0,7.7,0.6,11.1,1.8c3.5,1.2,6.3,2.9,8.6,5.1l-1.8,1.3c-2.1-1.9-4.7-3.4-7.9-4.5c-3.1-1.1-6.5-1.6-10.1-1.6
			c-2.8,0-5.4,0.4-7.6,1.2c-2.3,0.8-4.1,2-5.6,3.4c-1.5,1.4-2.6,3.1-3.4,5c-0.8,1.9-1.2,3.9-1.2,6.1c0,2.9,0.6,5.6,1.8,7.9
			c1.2,2.4,3,4.2,5.4,5.7S316.4,39.8,319.7,39.8z M319.7,30.8h3.5c4.2,0,7.4,1.3,9.8,3.9c2.4,2.6,3.5,5.8,3.5,9.6
			c0,3.9-1.4,7.1-4.1,9.7s-6.6,3.8-11.5,3.8c-3.3,0-6.4-0.5-9.2-1.4c-2.9-0.9-5.2-2.2-7.1-3.9l1.7-1.4c1.7,1.4,3.8,2.5,6.4,3.2
			s5.3,1.2,8.3,1.2c4.3,0,7.7-1.1,9.9-3.2c2.3-2.1,3.4-4.8,3.4-8.1c0-3.2-1-5.9-2.9-8.1s-4.7-3.2-8.3-3.2h-3.5c-3,0-5.3-0.8-6.8-2.5
			c-1.5-1.7-2.3-3.8-2.3-6.5c0-2.7,0.9-4.8,2.8-6.5s4.7-2.5,8.4-2.5c2.6,0,5,0.3,7.3,0.9c2.2,0.6,4.1,1.5,5.6,2.6L333,20
			c-2.6-1.8-6.3-2.7-11.1-2.7c-3.1,0-5.4,0.6-6.8,1.9c-1.4,1.2-2.1,2.9-2.1,4.9c0,2,0.5,3.7,1.6,4.9S317.3,30.8,319.7,30.8z
			 M319.7,35.3h3.4c3,0,5.3,0.8,6.8,2.5s2.3,3.8,2.3,6.5c0,2.7-0.9,4.8-2.8,6.5c-1.9,1.7-4.7,2.5-8.4,2.5c-2.6,0-5-0.3-7.3-0.9
			s-4.1-1.5-5.6-2.6l1.8-1.4c2.6,1.8,6.3,2.7,11.1,2.7c3.1,0,5.4-0.6,6.8-1.9s2.1-2.9,2.1-4.9c0-2-0.5-3.7-1.6-4.9
			c-1.1-1.2-2.8-1.9-5.2-1.9h-3.4c-4.2,0-7.5-1.3-9.9-3.8c-2.4-2.6-3.6-5.8-3.6-9.7c0-3.9,1.4-7.1,4.1-9.7s6.6-3.8,11.5-3.8
			c3.3,0,6.4,0.5,9.2,1.4c2.8,0.9,5.2,2.2,7.1,3.9l-1.7,1.4c-1.7-1.4-3.8-2.5-6.4-3.2c-2.6-0.8-5.3-1.2-8.2-1.2
			c-4.3,0-7.7,1.1-9.9,3.2c-2.3,2.1-3.4,4.8-3.4,8.1c0,3.3,1,6,2.9,8.1C313.3,34.2,316.1,35.3,319.7,35.3z"/>
		<path class="st5" d="M348.1,60h-2.2V8.3h2.2V60z M352.6,60h-2.2V8.3h2.2V60z M357,60h-2.2V8.3h2.2V60z M361.5,48.8h23.6V51h-23.6
			v2.2h23.6v2.2h-23.6v2.2h23.6V60h-25.9V8.3h25.9v2.2h-23.6v2.2h23.6V15h-23.6v2.2h23.6v2.2h-23.6v9h12.1v2.2h-12.1V33h12.1v2.2
			h-12.1v2.2h12.1v2.2h-12.1V48.8z"/>
		<path class="st5" d="M391.1,60h-2.4l20.2-51.7h2.4L431.5,60h-2.4l-19-48.7L391.1,60z M410.4,16.7l1.3,2.9L395.9,60h-2.4
			L410.4,16.7z M412.9,22.6l1.2,3.1L400.7,60h-2.4L412.9,22.6z M415.2,28.8l1.2,3.2l-11,28.1h-2.4L415.2,28.8z M409.2,53.9l0.9-2.2
			h14.6l0.9,2.2H409.2z M410.9,49.4l0.9-2.2h11.1l1,2.2H410.9z M412.6,44.9l0.9-2.2h7.6l0.9,2.2H412.6z M416.1,8.3L436.3,60h-2.4
			L413.7,8.3H416.1z M420.9,8.3L441.1,60h-2.4L418.5,8.3H420.9z M445.8,60h-2.4L423.3,8.3h2.4L445.8,60z"/>
		<path class="st5" d="M466.5,43.3h13.4c2.9,0,5.6-0.7,8-2.2c2.5-1.4,4.4-3.4,5.9-6c1.5-2.6,2.2-5.4,2.2-8.5c0-2.8-0.7-5.5-2.2-7.9
			s-3.5-4.4-5.9-5.9c-2.5-1.5-5.2-2.2-8-2.2h-28V60h-2.2V8.3h30.2c3.2,0,6.3,0.8,9.1,2.5s5.1,3.9,6.8,6.7c1.7,2.8,2.5,5.8,2.5,9
			c0,3.7-0.8,7-2.4,9.8s-3.7,5-6.4,6.6l5.7,17.1h-2.3l-5.5-16c-0.8,0.3-1.5,0.6-1.9,0.7l5.2,15.3h-2.3l-5-14.8c-0.2,0-0.8,0.1-2,0.2
			l4.8,14.6h-2.3l-4.7-14.5h-2l4.5,14.5h-2.3l-4.5-14.5h-8.2V43.3z M466.5,38.8h13.4c3.2,0,6-1.1,8.3-3.4c2.3-2.3,3.5-5.2,3.5-8.8
			c0-3.1-1.2-5.8-3.5-8.1c-2.4-2.3-5.1-3.5-8.2-3.5h-23.5v45h-2.2V12.8h25.7c2.4,0,4.7,0.6,6.9,1.9s3.9,3,5.1,5.1
			c1.3,2.1,1.9,4.4,1.9,6.8c0,4.1-1.4,7.5-4.1,10.3c-2.7,2.8-6,4.1-9.8,4.1h-13.4V38.8z M466.5,34.3h13.4c2,0,3.8-0.7,5.2-2
			c1.4-1.3,2.1-3.2,2.1-5.7c0-1.8-0.7-3.4-2.2-4.9c-1.5-1.4-3.2-2.2-5.1-2.2h-19.1V60h-2.2V17.3h21.3c2.5,0,4.7,0.9,6.6,2.8
			c1.9,1.9,2.9,4,2.9,6.5c0,3-0.9,5.4-2.8,7.2c-1.9,1.8-4.1,2.7-6.7,2.7h-13.4V34.3z M465.3,60h-2.2V21.8h16.8
			c1.4,0,2.6,0.5,3.6,1.4c1,0.9,1.5,2.1,1.5,3.4c0,3.6-1.7,5.4-5.1,5.4h-13.4v-2.2h13.4c0.9,0,1.6-0.2,2.1-0.7s0.8-1.3,0.8-2.5
			c0-0.7-0.3-1.3-0.8-1.8c-0.5-0.5-1.2-0.7-2-0.7h-14.6V60z"/>
		<path class="st5" d="M552.6,18.4l-1.9,1.2c-2.3-3.5-5.4-6.2-9.1-8.2c-3.7-2-7.7-3-12-3c-3.5,0-6.8,0.7-9.9,2
			c-3.2,1.4-5.9,3.2-8.2,5.5c-2.3,2.3-4.1,5.1-5.4,8.3c-1.3,3.2-2,6.5-2,10s0.7,6.8,2,10c1.3,3.2,3.2,6,5.4,8.3
			c2.3,2.3,5,4.2,8.2,5.5c3.2,1.4,6.5,2,9.9,2c4.3,0,8.3-1,12-3.1c3.7-2,6.8-4.8,9.1-8.3l1.8,1.4c-2.5,3.7-5.8,6.7-9.9,8.9
			c-4,2.2-8.4,3.3-13,3.3c-3.8,0-7.4-0.7-10.8-2.2c-3.4-1.5-6.4-3.5-8.9-6c-2.5-2.5-4.5-5.5-5.9-9c-1.5-3.5-2.2-7.1-2.2-10.9
			c0-3.8,0.7-7.5,2.2-10.9c1.5-3.5,3.4-6.5,5.9-9s5.4-4.5,8.9-6c3.4-1.5,7-2.2,10.8-2.2c4.7,0,9,1.1,13.1,3.3
			C546.8,11.6,550.1,14.6,552.6,18.4z M549,20.9l-1.9,1.2c-1.9-2.9-4.4-5.1-7.5-6.8c-3.1-1.7-6.4-2.5-9.9-2.5
			c-2.9,0-5.6,0.6-8.2,1.7c-2.6,1.1-4.9,2.6-6.7,4.5c-1.9,1.9-3.4,4.2-4.5,6.8c-1.1,2.6-1.7,5.4-1.7,8.3c0,2.9,0.6,5.7,1.7,8.3
			c1.1,2.6,2.6,4.9,4.5,6.8s4.1,3.4,6.7,4.5c2.6,1.1,5.3,1.7,8.2,1.7c3.6,0,6.9-0.8,10-2.5c3.1-1.7,5.6-4,7.5-6.8l1.8,1.3
			c-2.1,3.2-4.9,5.7-8.3,7.5c-3.4,1.8-7,2.8-11,2.8c-4.2,0-8.1-1.1-11.7-3.2c-3.6-2.1-6.4-5-8.5-8.6c-2.1-3.6-3.1-7.6-3.1-11.8
			c0-4.3,1-8.2,3.1-11.8c2.1-3.6,4.9-6.5,8.5-8.6c3.6-2.1,7.5-3.2,11.7-3.2c3.9,0,7.6,0.9,11,2.8C544.1,15.2,546.8,17.7,549,20.9z
			 M545.3,23.4l-1.9,1.2c-1.5-2.2-3.5-4-5.9-5.4c-2.4-1.3-5-2-7.9-2c-3,0-5.8,0.8-8.4,2.3s-4.6,3.6-6.1,6.1
			c-1.5,2.6-2.2,5.4-2.2,8.5s0.7,5.9,2.2,8.5c1.5,2.6,3.5,4.6,6.1,6.1s5.3,2.3,8.4,2.3c2.8,0,5.4-0.7,7.9-2s4.4-3.1,5.9-5.4l1.8,1.3
			c-1.7,2.6-4,4.6-6.7,6.1c-2.7,1.5-5.7,2.2-8.9,2.2c-3.4,0-6.6-0.9-9.5-2.6c-2.9-1.7-5.2-4-6.9-7c-1.7-2.9-2.5-6.1-2.5-9.6
			c0-3.5,0.8-6.7,2.5-9.6c1.7-2.9,4-5.3,6.9-7c2.9-1.7,6.1-2.6,9.5-2.6c3.2,0,6.2,0.8,8.9,2.2C541.3,18.8,543.5,20.8,545.3,23.4z
			 M541.6,26l-1.8,1.2c-1.1-1.7-2.6-3-4.3-4s-3.7-1.5-5.8-1.5c-3.4,0-6.3,1.2-8.6,3.6s-3.6,5.3-3.6,8.7s1.2,6.3,3.6,8.7
			c2.4,2.4,5.3,3.6,8.6,3.6c2.1,0,4-0.5,5.8-1.5c1.8-1,3.2-2.3,4.3-4l1.8,1.3c-1.3,2-3,3.5-5.1,4.7c-2.1,1.1-4.4,1.7-6.8,1.7
			c-2,0-3.8-0.4-5.6-1.2c-1.8-0.8-3.3-1.8-4.6-3.1s-2.3-2.9-3.1-4.7c-0.8-1.8-1.1-3.7-1.1-5.7c0-2,0.4-3.9,1.1-5.7
			c0.8-1.8,1.8-3.4,3.1-4.7s2.8-2.4,4.6-3.1c1.8-0.8,3.6-1.2,5.6-1.2c2.4,0,4.7,0.6,6.8,1.7C538.6,22.4,540.3,24,541.6,26z"/>
		<path class="st5" d="M556.9,8.3h2.2V60h-2.2V8.3z M561.3,8.3h2.2V60h-2.2V8.3z M565.8,8.3h2.2V60h-2.2V8.3z M592.4,8.3h2.2V60
			h-2.2V39.8h-20V60h-2.2V8.3h2.2v20.2h20V8.3z M592.4,33v-2.2h-20V33H592.4z M592.4,37.5v-2.2h-20v2.2H592.4z M596.9,8.3h2.2V60
			h-2.2V8.3z M601.3,8.3h2.2V60h-2.2V8.3z M605.7,8.3h2.2V60h-2.2V8.3z"/>
	</g>
</g>
<g id="test" class="st0">
	<g class="st2">
		<path class="st5" d="M16.5,6h14.3l14.1,20.7L58.9,6h14.3v54H55.9V40.6l-11,16.2L33.8,40.6V60H16.5V6z"/>
		<path class="st5" d="M81.8,6h18.3v54H81.8V6z"/>
		<path class="st5" d="M107.6,33.1c0-4.3,0.8-8.2,2.3-11.7c1.5-3.5,3.6-6.5,6.2-9c2.6-2.5,5.6-4.4,9.1-5.7c3.5-1.3,7.1-2,11-2
			c3.1,0,5.8,0.3,8.2,0.9c2.4,0.6,4.5,1.3,6.2,2c2,0.9,3.7,1.8,5.2,2.8l-8.5,15c-0.9-0.6-1.8-1.3-2.8-1.9c-0.9-0.4-2-0.9-3.3-1.3
			c-1.3-0.4-2.7-0.6-4.3-0.6c-1.7,0-3.2,0.3-4.6,0.9c-1.4,0.6-2.6,1.4-3.7,2.4c-1.1,1-1.9,2.2-2.5,3.6c-0.6,1.4-0.9,2.8-0.9,4.4
			s0.3,3,0.9,4.4c0.6,1.4,1.5,2.6,2.6,3.6c1.1,1,2.3,1.8,3.8,2.4c1.5,0.6,3.1,0.9,4.8,0.9c1.7,0,3.3-0.2,4.6-0.6
			c1.3-0.4,2.5-0.9,3.4-1.5c1.1-0.6,2-1.3,2.8-2.1l8.5,15c-1.5,1.2-3.2,2.2-5.2,3.2c-1.7,0.8-3.8,1.5-6.2,2.1c-2.4,0.6-5.2,1-8.3,1
			c-4.2,0-8.1-0.7-11.7-2.1c-3.6-1.4-6.6-3.3-9.2-5.8c-2.6-2.5-4.6-5.5-6.1-9S107.6,37.3,107.6,33.1z"/>
		<path class="st5" d="M161.5,6h18.6c3.5,0,6.7,0.5,9.6,1.4c2.9,0.9,5.5,2.3,7.7,4c2.2,1.8,3.8,4,5.1,6.6c1.2,2.6,1.8,5.6,1.8,9
			c0,2.7-0.4,5-1.1,6.9c-0.8,1.9-1.6,3.5-2.5,4.7c-1.1,1.4-2.3,2.6-3.6,3.6L207.1,60h-20.2l-8.1-13.7V60h-17.3V6z M178.8,32.6h0.9
			c2.1,0,3.8-0.5,5.2-1.4c1.4-0.9,2.1-2.5,2.1-4.6c0-2.2-0.7-3.7-2.1-4.6c-1.4-0.9-3.2-1.4-5.2-1.4h-0.9V32.6z"/>
		<path class="st5" d="M210.1,33.1c0-3.9,0.7-7.6,2.2-11c1.5-3.5,3.5-6.5,6.1-9c2.6-2.6,5.6-4.6,9-6.1c3.5-1.5,7.1-2.2,11-2.2
			c3.9,0,7.6,0.7,11,2.2c3.5,1.5,6.5,3.5,9,6.1c2.6,2.6,4.6,5.6,6.1,9c1.5,3.5,2.2,7.1,2.2,11c0,3.9-0.7,7.6-2.2,11
			c-1.5,3.5-3.5,6.5-6.1,9c-2.6,2.6-5.6,4.6-9,6.1c-3.5,1.5-7.1,2.2-11,2.2c-3.9,0-7.6-0.7-11-2.2c-3.5-1.5-6.5-3.5-9-6.1
			c-2.6-2.6-4.6-5.6-6.1-9C210.9,40.6,210.1,37,210.1,33.1z M227.1,33.1c0,1.6,0.3,3,0.9,4.4c0.6,1.4,1.4,2.6,2.4,3.6
			c1,1,2.2,1.8,3.6,2.4s2.8,0.9,4.4,0.9c1.6,0,3-0.3,4.4-0.9c1.4-0.6,2.6-1.4,3.6-2.4c1-1,1.8-2.2,2.4-3.6c0.6-1.4,0.9-2.8,0.9-4.4
			s-0.3-3-0.9-4.4c-0.6-1.4-1.4-2.6-2.4-3.6c-1-1-2.2-1.8-3.6-2.4c-1.4-0.6-2.8-0.9-4.4-0.9c-1.6,0-3,0.3-4.4,0.9
			c-1.4,0.6-2.6,1.4-3.6,2.4c-1,1-1.8,2.2-2.4,3.6C227.4,30,227.1,31.5,227.1,33.1z"/>
		<path class="st5" d="M295,28.5h-3.7c-1.6,0-2.7-0.4-3.4-1.2c-0.7-0.8-1-1.9-1-3.3c0-3,2.2-4.5,6.6-4.5c4.2,0,7.3,0.6,9.4,1.9
			l-1.8,1.4c-1.4-0.7-4-1-7.6-1c-1.8,0-3,0.2-3.6,0.6c-0.6,0.4-0.9,0.9-0.9,1.7s0.2,1.3,0.5,1.7c0.3,0.4,0.9,0.6,1.8,0.6h3.8
			c2.8,0,5.3,0.5,7.5,1.4c2.2,1,4.1,2.3,5.5,3.9c1.4,1.7,2.5,3.6,3.3,5.7s1.1,4.5,1.1,6.9c0,2-0.3,3.9-0.8,5.7
			c-0.6,1.8-1.4,3.4-2.5,4.9c-1.1,1.5-2.5,2.8-4,3.9c-1.6,1.1-3.4,1.9-5.6,2.6c-2.2,0.6-4.5,0.9-7,0.9c-4,0-7.7-0.6-11.2-1.8
			c-3.5-1.2-6.4-2.9-8.7-5.1l1.8-1.3c2.1,1.9,4.7,3.4,7.9,4.5c3.2,1.1,6.5,1.6,10.1,1.6c2.8,0,5.4-0.4,7.6-1.2
			c2.3-0.8,4.1-2,5.6-3.4c1.5-1.4,2.6-3.1,3.4-5c0.8-1.9,1.2-3.9,1.2-6.1c0-2.9-0.6-5.5-1.7-7.9c-1.2-2.3-2.9-4.2-5.3-5.7
			C301,29.3,298.2,28.5,295,28.5z M291.2,39.8h3.4c1.6,0,2.7,0.4,3.4,1.2c0.7,0.8,1,1.9,1,3.2c0,3-2.2,4.5-6.6,4.5
			c-4.2,0-7.3-0.6-9.4-1.9l1.8-1.4c1.4,0.7,4,1,7.6,1c1.8,0,3-0.2,3.6-0.6c0.6-0.4,0.9-0.9,0.9-1.7c0-0.7-0.2-1.2-0.5-1.6
			c-0.3-0.4-1-0.6-1.9-0.6h-3.3c-2.8,0-5.4-0.5-7.7-1.4c-2.3-0.9-4.2-2.2-5.6-3.9c-1.5-1.6-2.6-3.6-3.4-5.7c-0.8-2.2-1.2-4.5-1.2-7
			c0-2,0.3-3.9,0.8-5.7c0.6-1.8,1.4-3.4,2.5-4.9c1.1-1.5,2.5-2.8,4-3.9c1.6-1.1,3.4-1.9,5.6-2.6c2.2-0.6,4.5-0.9,7-0.9
			c4,0,7.7,0.6,11.1,1.8c3.5,1.2,6.3,2.9,8.6,5.1l-1.8,1.3c-2.1-1.9-4.7-3.4-7.9-4.5c-3.1-1.1-6.5-1.6-10.1-1.6
			c-2.8,0-5.4,0.4-7.6,1.2c-2.3,0.8-4.1,2-5.6,3.4c-1.5,1.4-2.6,3.1-3.4,5c-0.8,1.9-1.2,3.9-1.2,6.1c0,2.9,0.6,5.6,1.8,7.9
			c1.2,2.4,3,4.2,5.4,5.7S287.9,39.8,291.2,39.8z M291.2,30.8h3.5c4.2,0,7.4,1.3,9.8,3.9c2.4,2.6,3.5,5.8,3.5,9.6
			c0,3.9-1.4,7.1-4.1,9.7s-6.6,3.8-11.5,3.8c-3.3,0-6.4-0.5-9.2-1.4c-2.9-0.9-5.2-2.2-7.1-3.9l1.7-1.4c1.7,1.4,3.8,2.5,6.4,3.2
			s5.3,1.2,8.3,1.2c4.3,0,7.7-1.1,9.9-3.2c2.3-2.1,3.4-4.8,3.4-8.1c0-3.2-1-5.9-2.9-8.1s-4.7-3.2-8.3-3.2h-3.5c-3,0-5.3-0.8-6.8-2.5
			c-1.5-1.7-2.3-3.8-2.3-6.5c0-2.7,0.9-4.8,2.8-6.5s4.7-2.5,8.4-2.5c2.6,0,5,0.3,7.3,0.9c2.2,0.6,4.1,1.5,5.6,2.6l-1.8,1.4
			c-2.6-1.8-6.3-2.7-11.1-2.7c-3.1,0-5.4,0.6-6.8,1.9c-1.4,1.2-2.1,2.9-2.1,4.9c0,2,0.5,3.7,1.6,4.9S288.8,30.8,291.2,30.8z
			 M291.2,35.3h3.4c3,0,5.3,0.8,6.8,2.5s2.3,3.8,2.3,6.5c0,2.7-0.9,4.8-2.8,6.5c-1.9,1.7-4.7,2.5-8.4,2.5c-2.6,0-5-0.3-7.3-0.9
			s-4.1-1.5-5.6-2.6l1.8-1.4c2.6,1.8,6.3,2.7,11.1,2.7c3.1,0,5.4-0.6,6.8-1.9s2.1-2.9,2.1-4.9c0-2-0.5-3.7-1.6-4.9
			c-1.1-1.2-2.8-1.9-5.2-1.9h-3.4c-4.2,0-7.5-1.3-9.9-3.8c-2.4-2.6-3.6-5.8-3.6-9.7c0-3.9,1.4-7.1,4.1-9.7s6.6-3.8,11.5-3.8
			c3.3,0,6.4,0.5,9.2,1.4c2.8,0.9,5.2,2.2,7.1,3.9l-1.7,1.4c-1.7-1.4-3.8-2.5-6.4-3.2c-2.6-0.8-5.3-1.2-8.2-1.2
			c-4.3,0-7.7,1.1-9.9,3.2c-2.3,2.1-3.4,4.8-3.4,8.1c0,3.3,1,6,2.9,8.1C284.8,34.2,287.6,35.3,291.2,35.3z"/>
		<path class="st5" d="M322.6,60h-2.2V8.3h2.2V60z M327.1,60h-2.2V8.3h2.2V60z M331.5,60h-2.2V8.3h2.2V60z M336,48.8h23.6V51H336
			v2.2h23.6v2.2H336v2.2h23.6V60h-25.9V8.3h25.9v2.2H336v2.2h23.6V15H336v2.2h23.6v2.2H336v9h12.1v2.2H336V33h12.1v2.2H336v2.2h12.1
			v2.2H336V48.8z"/>
		<path class="st5" d="M368.6,60h-2.4l20.2-51.7h2.4L409,60h-2.4l-19-48.7L368.6,60z M387.9,16.7l1.3,2.9L373.4,60H371L387.9,16.7z
			 M390.4,22.6l1.2,3.1L378.2,60h-2.4L390.4,22.6z M392.7,28.8l1.2,3.2l-11,28.1h-2.4L392.7,28.8z M386.7,53.9l0.9-2.2h14.6l0.9,2.2
			H386.7z M388.4,49.4l0.9-2.2h11.1l1,2.2H388.4z M390.1,44.9l0.9-2.2h7.6l0.9,2.2H390.1z M393.6,8.3L413.8,60h-2.4L391.2,8.3H393.6
			z M398.4,8.3L418.6,60h-2.4L396,8.3H398.4z M423.3,60h-2.4L400.8,8.3h2.4L423.3,60z"/>
		<path class="st5" d="M447,43.3h13.4c2.9,0,5.6-0.7,8-2.2c2.5-1.4,4.4-3.4,5.9-6c1.5-2.6,2.2-5.4,2.2-8.5c0-2.8-0.7-5.5-2.2-7.9
			s-3.5-4.4-5.9-5.9c-2.5-1.5-5.2-2.2-8-2.2h-28V60h-2.2V8.3h30.2c3.2,0,6.3,0.8,9.1,2.5s5.1,3.9,6.8,6.7c1.7,2.8,2.5,5.8,2.5,9
			c0,3.7-0.8,7-2.4,9.8s-3.7,5-6.4,6.6l5.7,17.1h-2.3l-5.5-16c-0.8,0.3-1.5,0.6-1.9,0.7l5.2,15.3h-2.3l-5-14.8c-0.2,0-0.8,0.1-2,0.2
			l4.8,14.6h-2.3l-4.7-14.5h-2l4.5,14.5h-2.3l-4.5-14.5H447V43.3z M447,38.8h13.4c3.2,0,6-1.1,8.3-3.4c2.3-2.3,3.5-5.2,3.5-8.8
			c0-3.1-1.2-5.8-3.5-8.1c-2.4-2.3-5.1-3.5-8.2-3.5h-23.5v45h-2.2V12.8h25.7c2.4,0,4.7,0.6,6.9,1.9s3.9,3,5.1,5.1
			c1.3,2.1,1.9,4.4,1.9,6.8c0,4.1-1.4,7.5-4.1,10.3c-2.7,2.8-6,4.1-9.8,4.1H447V38.8z M447,34.3h13.4c2,0,3.8-0.7,5.2-2
			c1.4-1.3,2.1-3.2,2.1-5.7c0-1.8-0.7-3.4-2.2-4.9c-1.5-1.4-3.2-2.2-5.1-2.2h-19.1V60h-2.2V17.3h21.3c2.5,0,4.7,0.9,6.6,2.8
			c1.9,1.9,2.9,4,2.9,6.5c0,3-0.9,5.4-2.8,7.2c-1.9,1.8-4.1,2.7-6.7,2.7H447V34.3z M445.8,60h-2.2V21.8h16.8c1.4,0,2.6,0.5,3.6,1.4
			c1,0.9,1.5,2.1,1.5,3.4c0,3.6-1.7,5.4-5.1,5.4H447v-2.2h13.4c0.9,0,1.6-0.2,2.1-0.7s0.8-1.3,0.8-2.5c0-0.7-0.3-1.3-0.8-1.8
			c-0.5-0.5-1.2-0.7-2-0.7h-14.6V60z"/>
		<path class="st5" d="M536.1,18.4l-1.9,1.2c-2.3-3.5-5.4-6.2-9.1-8.2c-3.7-2-7.7-3-12-3c-3.5,0-6.8,0.7-9.9,2
			c-3.2,1.4-5.9,3.2-8.2,5.5c-2.3,2.3-4.1,5.1-5.4,8.3c-1.3,3.2-2,6.5-2,10s0.7,6.8,2,10c1.3,3.2,3.2,6,5.4,8.3
			c2.3,2.3,5,4.2,8.2,5.5c3.2,1.4,6.5,2,9.9,2c4.3,0,8.3-1,12-3.1c3.7-2,6.8-4.8,9.1-8.3l1.8,1.4c-2.5,3.7-5.8,6.7-9.9,8.9
			c-4,2.2-8.4,3.3-13,3.3c-3.8,0-7.4-0.7-10.8-2.2c-3.4-1.5-6.4-3.5-8.9-6c-2.5-2.5-4.5-5.5-5.9-9c-1.5-3.5-2.2-7.1-2.2-10.9
			c0-3.8,0.7-7.5,2.2-10.9c1.5-3.5,3.4-6.5,5.9-9s5.4-4.5,8.9-6c3.4-1.5,7-2.2,10.8-2.2c4.7,0,9,1.1,13.1,3.3
			C530.3,11.6,533.6,14.6,536.1,18.4z M532.5,20.9l-1.9,1.2c-1.9-2.9-4.4-5.1-7.5-6.8c-3.1-1.7-6.4-2.5-9.9-2.5
			c-2.9,0-5.6,0.6-8.2,1.7c-2.6,1.1-4.9,2.6-6.7,4.5c-1.9,1.9-3.4,4.2-4.5,6.8c-1.1,2.6-1.7,5.4-1.7,8.3c0,2.9,0.6,5.7,1.7,8.3
			c1.1,2.6,2.6,4.9,4.5,6.8s4.1,3.4,6.7,4.5c2.6,1.1,5.3,1.7,8.2,1.7c3.6,0,6.9-0.8,10-2.5c3.1-1.7,5.6-4,7.5-6.8l1.8,1.3
			c-2.1,3.2-4.9,5.7-8.3,7.5c-3.4,1.8-7,2.8-11,2.8c-4.2,0-8.1-1.1-11.7-3.2c-3.6-2.1-6.4-5-8.5-8.6c-2.1-3.6-3.1-7.6-3.1-11.8
			c0-4.3,1-8.2,3.1-11.8c2.1-3.6,4.9-6.5,8.5-8.6c3.6-2.1,7.5-3.2,11.7-3.2c3.9,0,7.6,0.9,11,2.8C527.6,15.2,530.3,17.7,532.5,20.9z
			 M528.8,23.4l-1.9,1.2c-1.5-2.2-3.5-4-5.9-5.4c-2.4-1.3-5-2-7.9-2c-3,0-5.8,0.8-8.4,2.3s-4.6,3.6-6.1,6.1
			c-1.5,2.6-2.2,5.4-2.2,8.5s0.7,5.9,2.2,8.5c1.5,2.6,3.5,4.6,6.1,6.1s5.3,2.3,8.4,2.3c2.8,0,5.4-0.7,7.9-2s4.4-3.1,5.9-5.4l1.8,1.3
			c-1.7,2.6-4,4.6-6.7,6.1c-2.7,1.5-5.7,2.2-8.9,2.2c-3.4,0-6.6-0.9-9.5-2.6c-2.9-1.7-5.2-4-6.9-7c-1.7-2.9-2.5-6.1-2.5-9.6
			c0-3.5,0.8-6.7,2.5-9.6c1.7-2.9,4-5.3,6.9-7c2.9-1.7,6.1-2.6,9.5-2.6c3.2,0,6.2,0.8,8.9,2.2C524.8,18.8,527,20.8,528.8,23.4z
			 M525.1,26l-1.8,1.2c-1.1-1.7-2.6-3-4.3-4s-3.7-1.5-5.8-1.5c-3.4,0-6.3,1.2-8.6,3.6s-3.6,5.3-3.6,8.7s1.2,6.3,3.6,8.7
			c2.4,2.4,5.3,3.6,8.6,3.6c2.1,0,4-0.5,5.8-1.5c1.8-1,3.2-2.3,4.3-4l1.8,1.3c-1.3,2-3,3.5-5.1,4.7c-2.1,1.1-4.4,1.7-6.8,1.7
			c-2,0-3.8-0.4-5.6-1.2c-1.8-0.8-3.3-1.8-4.6-3.1s-2.3-2.9-3.1-4.7c-0.8-1.8-1.1-3.7-1.1-5.7c0-2,0.4-3.9,1.1-5.7
			c0.8-1.8,1.8-3.4,3.1-4.7s2.8-2.4,4.6-3.1c1.8-0.8,3.6-1.2,5.6-1.2c2.4,0,4.7,0.6,6.8,1.7C522.1,22.4,523.8,24,525.1,26z"/>
		<path class="st5" d="M543.4,8.3h2.2V60h-2.2V8.3z M547.8,8.3h2.2V60h-2.2V8.3z M552.3,8.3h2.2V60h-2.2V8.3z M578.9,8.3h2.2V60
			h-2.2V39.8h-20V60h-2.2V8.3h2.2v20.2h20V8.3z M578.9,33v-2.2h-20V33H578.9z M578.9,37.5v-2.2h-20v2.2H578.9z M583.4,8.3h2.2V60
			h-2.2V8.3z M587.8,8.3h2.2V60h-2.2V8.3z M592.2,8.3h2.2V60h-2.2V8.3z"/>
	</g>
</g>
<g id="Layer_3">
	<g class="st0">
		<path class="st6" d="M229.9,33.6c-2.1,0-3.8,1.7-3.8,3.7c0,2,1.7,3.7,3.7,3.7c2.1,0,3.8-1.7,3.8-3.7
			C233.6,35.3,231.9,33.6,229.9,33.6z"/>
		<path class="st6" d="M240.2,5.2c-15.6,0-28.3,12.7-28.3,28.3s12.7,28.3,28.3,28.3s28.3-12.7,28.3-28.3S255.9,5.2,240.2,5.2z
			 M256.1,40.9c-1.2,1-2.6,1.5-4.2,1.7c-0.3,0-0.7,0-1,0c-7,0-14.1,0-21.1,0c-1,0-1.9-0.3-2.8-0.8c-0.1,0-0.1-0.1-0.2-0.1
			c-0.8,0.9-1.6,1.7-2.5,2.5c-0.5,0.5-1,1-1.4,1.5c-0.2,0.2-0.5,0.3-0.8,0.2c-0.5-0.2-0.7-0.7-0.4-1.2c0.1-0.1,0.2-0.2,0.3-0.3
			c1.2-1.2,2.3-2.4,3.5-3.6c0.1-0.1,0.1-0.1,0.2-0.2c0-0.1-0.1-0.1-0.1-0.2c-0.7-1-1.1-2.2-1-3.4c0.1-2.4,1.9-4.4,4.2-4.8
			c0.4-0.1,0.8-0.1,1.2-0.1c5.3,0,10.6,0,16,0c0.2,0,0.4,0,0.6,0.2c0.2,0.2,0.3,0.5,0.2,0.8c-0.1,0.3-0.4,0.5-0.7,0.5
			c-0.1,0-0.1,0-0.2,0c-4,0-8,0-12,0c-0.1,0-0.2,0-0.3,0c0.1,0.1,0.1,0.1,0.1,0.2c0.2,0.4,0.5,0.7,0.7,1.1c0.1,0.1,0.2,0.2,0.3,0.2
			c3.6,0,7.1,0,10.7,0c1.1,0,2.2,0,3.4,0c0.5,0,0.9,0.5,0.7,1c-0.1,0.3-0.3,0.5-0.6,0.5c-0.1,0-0.2,0-0.3,0c-4.4,0-8.8,0-13.2,0
			c-0.1,0-0.1,0-0.2,0c-0.2,0-0.2,0-0.2,0.2c0,0.3,0,0.7,0,1c0,0.3,0,0.3,0.3,0.3c0.1,0,0.1,0,0.2,0c5.2,0,10.4,0,15.7,0
			c0.1,0,0.3,0,0.4,0c0.4,0.1,0.6,0.5,0.5,0.9c0,0.3-0.3,0.6-0.7,0.6c-0.1,0-0.2,0-0.3,0c-5.4,0-10.8,0-16.2,0
			c-0.2,0-0.3,0.1-0.4,0.3c-0.2,0.4-0.5,0.7-0.8,1.1c0,0-0.1,0.1-0.1,0.1c0,0,0,0,0,0c0.1,0,0.1,0,0.2,0c5.5,0,11,0,16.5,0
			c0.8,0,1.6,0,2.4-0.2c1.4-0.3,2.4-1,3.2-2.2c0.9-1.5,0.7-3.4-0.4-4.8c-0.7-0.9-1.6-1.4-2.7-1.7c-0.1,0-0.2,0-0.3-0.1
			c-0.4-0.1-0.6-0.4-0.6-0.8c0-0.4-0.1-0.8-0.2-1.2c-0.5-1.6-1.5-2.5-3.1-2.8c-0.9-0.2-1.7-0.1-2.6,0.2c-0.1,0-0.1,0.1-0.2,0.1
			c-0.6,0.2-0.9,0.1-1.3-0.4c-0.3-0.4-0.6-0.8-0.9-1.1c-1-1.1-2.3-1.7-3.8-2c-1.8-0.3-3.5,0-5.1,0.9c-1.6,0.9-2.6,2.3-3.2,4.1
			c0,0.1,0,0.1,0,0.2c0.1,0,0.2,0,0.3,0c3.7,0,7.4,0,11.1,0c0.5,0,0.8,0.4,0.8,0.8c0,0.4-0.3,0.7-0.7,0.7c-0.1,0-0.2,0-0.3,0
			c-3.9,0-7.8,0-11.7,0c-0.2,0-0.4,0-0.6,0c-0.5,0-0.9-0.4-0.8-1c0.2-0.9,0.5-1.7,0.9-2.5c0.5-1,1.1-1.9,1.9-2.7
			c0.9-0.9,2.1-1.5,3.3-1.8c2.9-0.8,5.5-0.4,8,1.4c0.6,0.4,1.1,0.9,1.5,1.4c0.3,0.4,0.6,0.4,1,0.3c1.3-0.3,2.6-0.2,3.8,0.3
			c1.6,0.7,2.7,1.9,3.1,3.7c0.2,0.6,0.5,1.1,1.1,1.3c0.9,0.4,1.7,1,2.4,1.7c0.8,0.9,1.3,2,1.4,3.2C258.3,38.1,257.6,39.7,256.1,40.9
			z"/>
	</g>
	<circle class="st7" cx="240.3" cy="33.5" r="28.3"/>
	<g>
		<path class="st8" d="M0,6h14.3l14.1,20.7L42.4,6h14.3v54H39.4V40.6l-11,16.2L17.3,40.6V60H0V6z"/>
		<path class="st8" d="M65.3,6h18.3v54H65.3V6z"/>
		<path class="st8" d="M91,33.1c0-4.3,0.8-8.2,2.3-11.7c1.5-3.5,3.6-6.5,6.2-9c2.6-2.5,5.6-4.4,9.1-5.7c3.5-1.3,7.1-2,11-2
			c3.1,0,5.8,0.3,8.2,0.9c2.4,0.6,4.5,1.3,6.2,2c2,0.9,3.7,1.8,5.2,2.8l-8.5,15c-0.9-0.6-1.8-1.3-2.8-1.9c-0.9-0.4-2-0.9-3.3-1.3
			c-1.3-0.4-2.7-0.6-4.3-0.6c-1.7,0-3.2,0.3-4.6,0.9c-1.4,0.6-2.6,1.4-3.7,2.4c-1.1,1-1.9,2.2-2.5,3.6c-0.6,1.4-0.9,2.8-0.9,4.4
			s0.3,3,0.9,4.4c0.6,1.4,1.5,2.6,2.6,3.6c1.1,1,2.3,1.8,3.8,2.4c1.5,0.6,3.1,0.9,4.8,0.9c1.7,0,3.3-0.2,4.6-0.6
			c1.3-0.4,2.5-0.9,3.4-1.5c1.1-0.6,2-1.3,2.8-2.1l8.5,15c-1.5,1.2-3.2,2.2-5.2,3.2c-1.7,0.8-3.8,1.5-6.2,2.1c-2.4,0.6-5.2,1-8.3,1
			c-4.2,0-8.1-0.7-11.7-2.1c-3.6-1.4-6.6-3.3-9.2-5.8c-2.6-2.5-4.6-5.5-6.1-9S91,37.3,91,33.1z"/>
		<path class="st8" d="M145,6h18.6c3.5,0,6.7,0.5,9.6,1.4c2.9,0.9,5.5,2.3,7.7,4c2.2,1.8,3.8,4,5.1,6.6c1.2,2.6,1.8,5.6,1.8,9
			c0,2.7-0.4,5-1.1,6.9c-0.8,1.9-1.6,3.5-2.5,4.7c-1.1,1.4-2.3,2.6-3.6,3.6L190.6,60h-20.2l-8.1-13.7V60H145V6z M162.3,32.6h0.9
			c2.1,0,3.8-0.5,5.2-1.4c1.4-0.9,2.1-2.5,2.1-4.6c0-2.2-0.7-3.7-2.1-4.6c-1.4-0.9-3.2-1.4-5.2-1.4h-0.9V32.6z"/>
		<path class="st8" d="M278.4,28.5h-3.7c-1.6,0-2.7-0.4-3.4-1.2c-0.7-0.8-1-1.9-1-3.3c0-3,2.2-4.5,6.6-4.5c4.2,0,7.3,0.6,9.4,1.9
			l-1.8,1.4c-1.4-0.7-4-1-7.6-1c-1.8,0-3,0.2-3.6,0.6c-0.6,0.4-0.9,0.9-0.9,1.7s0.2,1.3,0.5,1.7c0.3,0.4,0.9,0.6,1.8,0.6h3.8
			c2.8,0,5.3,0.5,7.5,1.4c2.2,1,4.1,2.3,5.5,3.9c1.4,1.7,2.5,3.6,3.3,5.7s1.1,4.5,1.1,6.9c0,2-0.3,3.9-0.8,5.7
			c-0.6,1.8-1.4,3.4-2.5,4.9c-1.1,1.5-2.5,2.8-4,3.9c-1.6,1.1-3.4,1.9-5.6,2.6c-2.2,0.6-4.5,0.9-7,0.9c-4,0-7.7-0.6-11.2-1.8
			c-3.5-1.2-6.4-2.9-8.7-5.1l1.8-1.3c2.1,1.9,4.7,3.4,7.9,4.5c3.2,1.1,6.5,1.6,10.1,1.6c2.8,0,5.4-0.4,7.6-1.2
			c2.3-0.8,4.1-2,5.6-3.4c1.5-1.4,2.6-3.1,3.4-5c0.8-1.9,1.2-3.9,1.2-6.1c0-2.9-0.6-5.5-1.7-7.9c-1.2-2.3-2.9-4.2-5.3-5.7
			C284.4,29.3,281.6,28.5,278.4,28.5z M274.7,39.8h3.4c1.6,0,2.7,0.4,3.4,1.2c0.7,0.8,1,1.9,1,3.2c0,3-2.2,4.5-6.6,4.5
			c-4.2,0-7.3-0.6-9.4-1.9l1.8-1.4c1.4,0.7,4,1,7.6,1c1.8,0,3-0.2,3.6-0.6c0.6-0.4,0.9-0.9,0.9-1.7c0-0.7-0.2-1.2-0.5-1.6
			c-0.3-0.4-1-0.6-1.9-0.6h-3.3c-2.8,0-5.4-0.5-7.7-1.4c-2.3-0.9-4.2-2.2-5.6-3.9c-1.5-1.6-2.6-3.6-3.4-5.7c-0.8-2.2-1.2-4.5-1.2-7
			c0-2,0.3-3.9,0.8-5.7c0.6-1.8,1.4-3.4,2.5-4.9c1.1-1.5,2.5-2.8,4-3.9c1.6-1.1,3.4-1.9,5.6-2.6c2.2-0.6,4.5-0.9,7-0.9
			c4,0,7.7,0.6,11.1,1.8c3.5,1.2,6.3,2.9,8.6,5.1l-1.8,1.3c-2.1-1.9-4.7-3.4-7.9-4.5c-3.1-1.1-6.5-1.6-10.1-1.6
			c-2.8,0-5.4,0.4-7.6,1.2c-2.3,0.8-4.1,2-5.6,3.4c-1.5,1.4-2.6,3.1-3.4,5c-0.8,1.9-1.2,3.9-1.2,6.1c0,2.9,0.6,5.6,1.8,7.9
			c1.2,2.4,3,4.2,5.4,5.7S271.4,39.8,274.7,39.8z M274.7,30.8h3.5c4.2,0,7.4,1.3,9.8,3.9c2.4,2.6,3.5,5.8,3.5,9.6
			c0,3.9-1.4,7.1-4.1,9.7s-6.6,3.8-11.5,3.8c-3.3,0-6.4-0.5-9.2-1.4c-2.9-0.9-5.2-2.2-7.1-3.9l1.7-1.4c1.7,1.4,3.8,2.5,6.4,3.2
			s5.3,1.2,8.3,1.2c4.3,0,7.7-1.1,9.9-3.2c2.3-2.1,3.4-4.8,3.4-8.1c0-3.2-1-5.9-2.9-8.1s-4.7-3.2-8.3-3.2h-3.5c-3,0-5.3-0.8-6.8-2.5
			c-1.5-1.7-2.3-3.8-2.3-6.5c0-2.7,0.9-4.8,2.8-6.5s4.7-2.5,8.4-2.5c2.6,0,5,0.3,7.3,0.9c2.2,0.6,4.1,1.5,5.6,2.6l-1.8,1.4
			c-2.6-1.8-6.3-2.7-11.1-2.7c-3.1,0-5.4,0.6-6.8,1.9c-1.4,1.2-2.1,2.9-2.1,4.9c0,2,0.5,3.7,1.6,4.9S272.3,30.8,274.7,30.8z
			 M274.7,35.3h3.4c3,0,5.3,0.8,6.8,2.5s2.3,3.8,2.3,6.5c0,2.7-0.9,4.8-2.8,6.5c-1.9,1.7-4.7,2.5-8.4,2.5c-2.6,0-5-0.3-7.3-0.9
			s-4.1-1.5-5.6-2.6l1.8-1.4c2.6,1.8,6.3,2.7,11.1,2.7c3.1,0,5.4-0.6,6.8-1.9s2.1-2.9,2.1-4.9c0-2-0.5-3.7-1.6-4.9
			c-1.1-1.2-2.8-1.9-5.2-1.9h-3.4c-4.2,0-7.5-1.3-9.9-3.8c-2.4-2.6-3.6-5.8-3.6-9.7c0-3.9,1.4-7.1,4.1-9.7s6.6-3.8,11.5-3.8
			c3.3,0,6.4,0.5,9.2,1.4c2.8,0.9,5.2,2.2,7.1,3.9l-1.7,1.4c-1.7-1.4-3.8-2.5-6.4-3.2c-2.6-0.8-5.3-1.2-8.2-1.2
			c-4.3,0-7.7,1.1-9.9,3.2c-2.3,2.1-3.4,4.8-3.4,8.1c0,3.3,1,6,2.9,8.1C268.3,34.2,271.1,35.3,274.7,35.3z"/>
		<path class="st8" d="M306.1,60h-2.2V8.3h2.2V60z M310.5,60h-2.2V8.3h2.2V60z M315,60h-2.2V8.3h2.2V60z M319.4,48.8h23.6V51h-23.6
			v2.2h23.6v2.2h-23.6v2.2h23.6V60h-25.9V8.3h25.9v2.2h-23.6v2.2h23.6V15h-23.6v2.2h23.6v2.2h-23.6v9h12.1v2.2h-12.1V33h12.1v2.2
			h-12.1v2.2h12.1v2.2h-12.1V48.8z"/>
		<path class="st8" d="M352.1,60h-2.4l20.2-51.7h2.4L392.5,60h-2.4l-19-48.7L352.1,60z M371.4,16.7l1.3,2.9L356.8,60h-2.4
			L371.4,16.7z M373.8,22.6l1.2,3.1L361.6,60h-2.4L373.8,22.6z M376.2,28.8l1.2,3.2l-11,28.1H364L376.2,28.8z M370.1,53.9l0.9-2.2
			h14.6l0.9,2.2H370.1z M371.9,49.4l0.9-2.2h11.1l1,2.2H371.9z M373.6,44.9l0.9-2.2h7.6l0.9,2.2H373.6z M377,8.3L397.2,60h-2.4
			L374.7,8.3H377z M381.8,8.3L402,60h-2.4L379.4,8.3H381.8z M406.8,60h-2.4L384.2,8.3h2.4L406.8,60z"/>
		<path class="st8" d="M430.5,43.3h13.4c2.9,0,5.6-0.7,8-2.2c2.5-1.4,4.4-3.4,5.9-6c1.5-2.6,2.2-5.4,2.2-8.5c0-2.8-0.7-5.5-2.2-7.9
			s-3.5-4.4-5.9-5.9c-2.5-1.5-5.2-2.2-8-2.2h-28V60h-2.2V8.3h30.2c3.2,0,6.3,0.8,9.1,2.5s5.1,3.9,6.8,6.7c1.7,2.8,2.5,5.8,2.5,9
			c0,3.7-0.8,7-2.4,9.8s-3.7,5-6.4,6.6l5.7,17.1h-2.3l-5.5-16c-0.8,0.3-1.5,0.6-1.9,0.7l5.2,15.3h-2.3l-5-14.8c-0.2,0-0.8,0.1-2,0.2
			l4.8,14.6h-2.3L443,45.5h-2l4.5,14.5h-2.3l-4.5-14.5h-8.2V43.3z M430.5,38.8h13.4c3.2,0,6-1.1,8.3-3.4c2.3-2.3,3.5-5.2,3.5-8.8
			c0-3.1-1.2-5.8-3.5-8.1c-2.4-2.3-5.1-3.5-8.2-3.5h-23.5v45h-2.2V12.8h25.7c2.4,0,4.7,0.6,6.9,1.9s3.9,3,5.1,5.1
			c1.3,2.1,1.9,4.4,1.9,6.8c0,4.1-1.4,7.5-4.1,10.3c-2.7,2.8-6,4.1-9.8,4.1h-13.4V38.8z M430.5,34.3h13.4c2,0,3.8-0.7,5.2-2
			c1.4-1.3,2.1-3.2,2.1-5.7c0-1.8-0.7-3.4-2.2-4.9c-1.5-1.4-3.2-2.2-5.1-2.2h-19.1V60h-2.2V17.3h21.3c2.5,0,4.7,0.9,6.6,2.8
			c1.9,1.9,2.9,4,2.9,6.5c0,3-0.9,5.4-2.8,7.2c-1.9,1.8-4.1,2.7-6.7,2.7h-13.4V34.3z M429.2,60H427V21.8h16.8c1.4,0,2.6,0.5,3.6,1.4
			c1,0.9,1.5,2.1,1.5,3.4c0,3.6-1.7,5.4-5.1,5.4h-13.4v-2.2h13.4c0.9,0,1.6-0.2,2.1-0.7s0.8-1.3,0.8-2.5c0-0.7-0.3-1.3-0.8-1.8
			c-0.5-0.5-1.2-0.7-2-0.7h-14.6V60z"/>
		<path class="st8" d="M519.6,18.4l-1.9,1.2c-2.3-3.5-5.4-6.2-9.1-8.2c-3.7-2-7.7-3-12-3c-3.5,0-6.8,0.7-9.9,2
			c-3.2,1.4-5.9,3.2-8.2,5.5c-2.3,2.3-4.1,5.1-5.4,8.3c-1.3,3.2-2,6.5-2,10s0.7,6.8,2,10c1.3,3.2,3.2,6,5.4,8.3
			c2.3,2.3,5,4.2,8.2,5.5c3.2,1.4,6.5,2,9.9,2c4.3,0,8.3-1,12-3.1c3.7-2,6.8-4.8,9.1-8.3l1.8,1.4c-2.5,3.7-5.8,6.7-9.9,8.9
			c-4,2.2-8.4,3.3-13,3.3c-3.8,0-7.4-0.7-10.8-2.2c-3.4-1.5-6.4-3.5-8.9-6c-2.5-2.5-4.5-5.5-5.9-9c-1.5-3.5-2.2-7.1-2.2-10.9
			c0-3.8,0.7-7.5,2.2-10.9c1.5-3.5,3.4-6.5,5.9-9s5.4-4.5,8.9-6c3.4-1.5,7-2.2,10.8-2.2c4.7,0,9,1.1,13.1,3.3
			C513.7,11.6,517,14.6,519.6,18.4z M515.9,20.9l-1.9,1.2c-1.9-2.9-4.4-5.1-7.5-6.8c-3.1-1.7-6.4-2.5-9.9-2.5
			c-2.9,0-5.6,0.6-8.2,1.7c-2.6,1.1-4.9,2.6-6.7,4.5c-1.9,1.9-3.4,4.2-4.5,6.8c-1.1,2.6-1.7,5.4-1.7,8.3c0,2.9,0.6,5.7,1.7,8.3
			c1.1,2.6,2.6,4.9,4.5,6.8s4.1,3.4,6.7,4.5c2.6,1.1,5.3,1.7,8.2,1.7c3.6,0,6.9-0.8,10-2.5c3.1-1.7,5.6-4,7.5-6.8l1.8,1.3
			c-2.1,3.2-4.9,5.7-8.3,7.5c-3.4,1.8-7,2.8-11,2.8c-4.2,0-8.1-1.1-11.7-3.2c-3.6-2.1-6.4-5-8.5-8.6c-2.1-3.6-3.1-7.6-3.1-11.8
			c0-4.3,1-8.2,3.1-11.8c2.1-3.6,4.9-6.5,8.5-8.6c3.6-2.1,7.5-3.2,11.7-3.2c3.9,0,7.6,0.9,11,2.8C511,15.2,513.8,17.7,515.9,20.9z
			 M512.2,23.4l-1.9,1.2c-1.5-2.2-3.5-4-5.9-5.4c-2.4-1.3-5-2-7.9-2c-3,0-5.8,0.8-8.4,2.3s-4.6,3.6-6.1,6.1
			c-1.5,2.6-2.2,5.4-2.2,8.5s0.7,5.9,2.2,8.5c1.5,2.6,3.5,4.6,6.1,6.1s5.3,2.3,8.4,2.3c2.8,0,5.4-0.7,7.9-2s4.4-3.1,5.9-5.4l1.8,1.3
			c-1.7,2.6-4,4.6-6.7,6.1c-2.7,1.5-5.7,2.2-8.9,2.2c-3.4,0-6.6-0.9-9.5-2.6c-2.9-1.7-5.2-4-6.9-7c-1.7-2.9-2.5-6.1-2.5-9.6
			c0-3.5,0.8-6.7,2.5-9.6c1.7-2.9,4-5.3,6.9-7c2.9-1.7,6.1-2.6,9.5-2.6c3.2,0,6.2,0.8,8.9,2.2C508.3,18.8,510.5,20.8,512.2,23.4z
			 M508.6,26l-1.8,1.2c-1.1-1.7-2.6-3-4.3-4s-3.7-1.5-5.8-1.5c-3.4,0-6.3,1.2-8.6,3.6s-3.6,5.3-3.6,8.7s1.2,6.3,3.6,8.7
			c2.4,2.4,5.3,3.6,8.6,3.6c2.1,0,4-0.5,5.8-1.5c1.8-1,3.2-2.3,4.3-4l1.8,1.3c-1.3,2-3,3.5-5.1,4.7c-2.1,1.1-4.4,1.7-6.8,1.7
			c-2,0-3.8-0.4-5.6-1.2c-1.8-0.8-3.3-1.8-4.6-3.1s-2.3-2.9-3.1-4.7c-0.8-1.8-1.1-3.7-1.1-5.7c0-2,0.4-3.9,1.1-5.7
			c0.8-1.8,1.8-3.4,3.1-4.7s2.8-2.4,4.6-3.1c1.8-0.8,3.6-1.2,5.6-1.2c2.4,0,4.7,0.6,6.8,1.7C505.5,22.4,507.2,24,508.6,26z"/>
		<path class="st8" d="M526.8,8.3h2.2V60h-2.2V8.3z M531.3,8.3h2.2V60h-2.2V8.3z M535.7,8.3h2.2V60h-2.2V8.3z M562.4,8.3h2.2V60
			h-2.2V39.8h-20V60h-2.2V8.3h2.2v20.2h20V8.3z M562.4,33v-2.2h-20V33H562.4z M562.4,37.5v-2.2h-20v2.2H562.4z M566.8,8.3h2.2V60
			h-2.2V8.3z M571.3,8.3h2.2V60h-2.2V8.3z M575.7,8.3h2.2V60h-2.2V8.3z"/>
		<g>
			<path class="st8" d="M223.4,37.4c-1.4,0-2.5,1.1-2.5,2.5c0,1.4,1.1,2.5,2.5,2.5s2.5-1.1,2.5-2.5
				C225.9,38.5,224.8,37.4,223.4,37.4z"/>
			<path class="st8" d="M223.4,5.2c-15.6,0-28.3,12.7-28.3,28.3s12.7,28.3,28.3,28.3s28.3-12.7,28.3-28.3S239,5.2,223.4,5.2z
				 M229.3,45.8c-0.1,0.1-0.3,0.2-0.5,0.2c-0.2,0-0.4-0.1-0.5-0.2l-2.6-2.6l0.4-0.4l-0.3-0.3c-0.6,0.5-1.4,0.8-2.2,0.8
				c-1.9,0-3.4-1.5-3.4-3.4c0-1.9,1.5-3.4,3.4-3.4s3.4,1.5,3.4,3.4c0,0.8-0.3,1.6-0.8,2.2l0.3,0.3l0.4-0.4l2.6,2.6
				C229.6,45,229.6,45.5,229.3,45.8z M232.5,42h-4.6c0.3-0.7,0.5-1.4,0.5-2.2c0-2.8-2.2-5-5-5s-5,2.2-5,5c0,0.8,0.2,1.5,0.5,2.2
				h-4.2c-3.7,0-6.2-2.4-6.2-5.5c0-2.5,1.8-5,4.4-5.5c0-4.4,4-6.2,6.9-4.7c1.1-2.2,3.4-4,6.6-4v0c4.5,0,7.7,4.1,7.3,8.1
				c2.7,0.5,4.7,2.9,4.7,5.7C238.3,39.4,235.7,42,232.5,42z"/>
		</g>
	</g>
	<g class="st0">
		<path class="st9" d="M275.7,59.2l-0.4,0.4l-0.4-0.4c0.6-0.7,1-1.6,1-2.6c0-2.2-1.8-3.9-3.9-3.9c-2.1,0-3.9,1.7-3.9,3.9
			c0,2.2,1.7,3.9,3.9,3.9c1,0,1.9-0.4,2.6-1l0.4,0.4l-0.4,0.4l3,3c0.2,0.2,0.4,0.3,0.6,0.3c0.2,0,0.5-0.1,0.6-0.3
			c0.3-0.3,0.3-0.9,0-1.3L275.7,59.2z M272,59.6c-1.6,0-2.9-1.3-2.9-2.9c0-1.6,1.3-2.9,2.9-2.9c1.6,0,2.9,1.3,2.9,2.9
			C274.8,58.3,273.6,59.6,272,59.6z"/>
		<path class="st9" d="M283.7,45.9c0.5-4.6-3.2-9.3-8.4-9.3v0c-3.6,0-6.3,2.1-7.5,4.6c-3.3-1.7-8,0.4-8,5.4c-3,0.5-5,3.4-5,6.3
			c0,3.5,2.9,6.3,7.1,6.3h4.9c-0.4-0.7-0.6-1.6-0.6-2.5c0-3.2,2.6-5.7,5.7-5.7s5.7,2.6,5.7,5.7c0,0.9-0.2,1.7-0.6,2.5h5.3
			c3.7,0,6.7-3,6.7-6.7C289.1,49.2,286.7,46.5,283.7,45.9z"/>
	</g>
</g>
</svg>
